Introduction to Tidyverse
…
# Isolating data

<img src="images/isolating.png" width="70%" style="display: block; margin: auto;" />

---

## select()

```r
chem_trait
```

```
## # A tibble: 576 × 15
##    date       elevation site  dest_block…¹ treat…² taxon stoic…³ p_per…⁴ c_per…⁵
##    <date>         <dbl> <chr> <chr>        <chr>   <chr> <chr>     <dbl>   <dbl>
##  1 2015-08-20      3500 M     MO           LOCAL   Poly… 164      0.0984    44.0
##  2 2015-08-20      3850 A     AO           LOCAL   Poly… 198      0.218     44.1
##  3 2015-08-20      3500 M     MO           LOCAL   Poly… 163      0.0983    45.8
##  4 2015-08-20      3000 L     LO           LOCAL   Poly… 113      0.0587    44.6
##  5 2015-08-20      4100 H     HO           LOCAL   Rhod… 224      0.128     46.6
##  6 2015-08-20      3500 M     MO           LOCAL   Rhod… 172      0.101     42.2
##  7 2015-08-20      3850 A     AO           LOCAL   Hemi… 186      0.122     47.4
##  8 2015-08-20      3500 M     MO           LOCAL   Clin… 134      0.124     46.0
##  9 2015-08-20      3000 L     LO           LOCAL   Swer… 122      0.206     48.7
## 10 2015-08-20      3500 M     MO           LOCAL   Hemi… 145      0.0632    48.6
## # … with 566 more rows, 6 more variables: n_percent <dbl>, cn_ratio <dbl>,
## #   d_n15_percent <dbl>, d_c13_percent <dbl>, n <dbl>, cnp_comment <chr>, and
## #   abbreviated variable names ¹​dest_block_id, ²​treatment, ³​stoich_label,
## #   ⁴​p_percent, ⁵​c_percent
```

---

## select() - Extract columns by name.

```r
chem_trait %>% 
  select(date, site, taxon)
```

```
## # A tibble: 576 × 3
##    date       site  taxon                    
##    <date>     <chr> <chr>                    
##  1 2015-08-20 M     Polygonum cyanandrum     
##  2 2015-08-20 A     Polygonum cyanandrum     
##  3 2015-08-20 M     Polygonum cyanandrum     
##  4 2015-08-20 L     Polygonum cyanandrum     
##  5 2015-08-20 H     Rhodiola fastigiata      
##  6 2015-08-20 M     Rhodiola yunnanensis     
##  7 2015-08-20 A     Hemiphragma heterophyllum
##  8 2015-08-20 M     Clinopodium polycephalum 
##  9 2015-08-20 L     Swertia macrosperma      
## 10 2015-08-20 M     Hemiphragma heterophyllum
## # … with 566 more rows
```

---

## select() - Select every column but

```r
chem_trait %>% 
  select(-c(date, elevation, site))
```

```
## # A tibble: 576 × 12
##    dest_…¹ treat…² taxon stoic…³ p_per…⁴ c_per…⁵ n_per…⁶ cn_ra…⁷ d_n15…⁸ d_c13…⁹
##    <chr>   <chr>   <chr> <chr>     <dbl>   <dbl>   <dbl>   <dbl>   <dbl>   <dbl>
##  1 MO      LOCAL   Poly… 164      0.0984    44.0    2.48    17.8  2.50     -30.9
##  2 AO      LOCAL   Poly… 198      0.218     44.1    2.85    15.5  3.77     -31.1
##  3 MO      LOCAL   Poly… 163      0.0983    45.8    3.06    15.0  2.52     -30.2
##  4 LO      LOCAL   Poly… 113      0.0587    44.6    2.51    17.8  4.92     -30.5
##  5 HO      LOCAL   Rhod… 224      0.128     46.6    2.64    17.6  0.0111   -29.1
##  6 MO      LOCAL   Rhod… 172      0.101     42.2    2.14    19.7  1.30     -29.0
##  7 AO      LOCAL   Hemi… 186      0.122     47.4    1.83    25.8  1.07     -28.5
##  8 MO      LOCAL   Clin… 134      0.124     46.0    3.05    15.1  0.750    -28.5
##  9 LO      LOCAL   Swer… 122      0.206     48.7    2.43    20.1  2.43     -28.2
## 10 MO      LOCAL   Hemi… 145      0.0632    48.6    2.07    23.4  1.53     -27.7
## # … with 566 more rows, 2 more variables: n <dbl>, cnp_comment <chr>, and
## #   abbreviated variable names ¹​dest_block_id, ²​treatment, ³​stoich_label,
## #   ⁴​p_percent, ⁵​c_percent, ⁶​n_percent, ⁷​cn_ratio, ⁸​d_n15_percent,
## #   ⁹​d_c13_percent
```

---

## select() - Rename variables

.pull-left[

```r
chem_trait %>% 
  select( date, site)
```

```
## # A tibble: 576 × 2
##    date       site 
##    <date>     <chr>
##  1 2015-08-20 M    
##  2 2015-08-20 A    
##  3 2015-08-20 M    
##  4 2015-08-20 L    
##  5 2015-08-20 H    
##  6 2015-08-20 M    
##  7 2015-08-20 A    
##  8 2015-08-20 M    
##  9 2015-08-20 L    
## 10 2015-08-20 M    
## # … with 566 more rows
```

]

.pull-right[

```r
chem_trait %>% 
select( time = date,
        location = site)
```

```
## # A tibble: 576 × 2
##    time       location
##    <date>     <chr>   
##  1 2015-08-20 M       
##  2 2015-08-20 A       
##  3 2015-08-20 M       
##  4 2015-08-20 L       
##  5 2015-08-20 H       
##  6 2015-08-20 M       
##  7 2015-08-20 A       
##  8 2015-08-20 M       
##  9 2015-08-20 L       
## 10 2015-08-20 M       
## # … with 566 more rows
```
]

---

#### select() 

**:** - select a range of columns

```r
chem_trait %>% 
  select(date:taxon)
```

```
## # A tibble: 576 × 6
##    date       elevation site  dest_block_id treatment taxon                    
##    <date>         <dbl> <chr> <chr>         <chr>     <chr>                    
##  1 2015-08-20      3500 M     MO            LOCAL     Polygonum cyanandrum     
##  2 2015-08-20      3850 A     AO            LOCAL     Polygonum cyanandrum     
##  3 2015-08-20      3500 M     MO            LOCAL     Polygonum cyanandrum     
##  4 2015-08-20      3000 L     LO            LOCAL     Polygonum cyanandrum     
##  5 2015-08-20      4100 H     HO            LOCAL     Rhodiola fastigiata      
##  6 2015-08-20      3500 M     MO            LOCAL     Rhodiola yunnanensis     
##  7 2015-08-20      3850 A     AO            LOCAL     Hemiphragma heterophyllum
##  8 2015-08-20      3500 M     MO            LOCAL     Clinopodium polycephalum 
##  9 2015-08-20      3000 L     LO            LOCAL     Swertia macrosperma      
## 10 2015-08-20      3500 M     MO            LOCAL     Hemiphragma heterophyllum
## # … with 566 more rows
```

---

#### select() 

**start_with** - Select columns that start with...

```r
chem_trait %>% 
  select(starts_with("cn"))
```

```
## # A tibble: 576 × 2
##    cn_ratio cnp_comment
##       <dbl> <chr>      
##  1     17.8 <NA>       
##  2     15.5 <NA>       
##  3     15.0 <NA>       
##  4     17.8 <NA>       
##  5     17.6 <NA>       
##  6     19.7 <NA>       
##  7     25.8 <NA>       
##  8     15.1 <NA>       
##  9     20.1 <NA>       
## 10     23.4 <NA>       
## # … with 566 more rows
```

---

## **filter()** - Extract rows that meet logical criteria

```r
chem_trait %>% 
  select(treatment, taxon) %>% 
  filter(treatment == "OTC")

```

```
## # A tibble: 74 × 2
##    treatment taxon                      
##    <chr>     <chr>                      
##  1 OTC       Potentilla leuconota       
##  2 OTC       Potentilla leuconota       
##  3 OTC       Plantago asiatica          
##  4 OTC       Potentilla leuconota       
##  5 OTC       Plantago asiatica          
##  6 OTC       Potentilla leuconota       
##  7 OTC       Potentilla leuconota       
##  8 OTC       Epilobium fangii           
##  9 OTC       Viola biflora var. rockiana
## 10 OTC       Artemisia flaccida         
## # … with 64 more rows
```
…
---

## arrange( )

.pull-left[

```r
chem_trait %>% 
  select(elevation, site)
## # A tibble: 576 × 2
##    elevation site 
##        <dbl> <chr>
##  1      3500 M    
##  2      3850 A    
##  3      3500 M    
##  4      3000 L    
##  5      4100 H    
##  6      3500 M    
##  7      3850 A    
##  8      3500 M    
##  9      3000 L    
## 10      3500 M    
## # … with 566 more rows
```
]

.pull-right[

```r
chem_trait %>% 
  select(elevation, site) %>% 
  arrange(elevation)
## # A tibble: 576 × 2
##    elevation site 
##        <dbl> <chr>
##  1      3000 L    
##  2      3000 L    
##  3      3000 L    
##  4      3000 L    
##  5      3000 L    
##  6      3000 L    
##  7      3000 L    
##  8      3000 L    
##  9      3000 L    
## 10      3000 L    
## # … with 566 more rows
```
]

---

## arrange(. , desc())

.pull-left[

```r
chem_trait %>% 
  select(elevation, site)
## # A tibble: 576 × 2
##    elevation site 
##        <dbl> <chr>
##  1      3500 M    
##  2      3850 A    
##  3      3500 M    
##  4      3000 L    
##  5      4100 H    
##  6      3500 M    
##  7      3850 A    
##  8      3500 M    
##  9      3000 L    
## 10      3500 M    
## # … with 566 more rows
```
]

.pull-right[

```r
chem_trait %>% 
  select(elevation, site) %>% 
  arrange(desc(elevation))
## # A tibble: 576 × 2
##    elevation site 
##        <dbl> <chr>
##  1      4100 H    
##  2      4100 H    
##  3      4100 H    
##  4      4100 H    
##  5      4100 H    
##  6      4100 H    
##  7      4100 H    
##  8      4100 H    
##  9      4100 H    
## 10      4100 H    
## # … with 566 more rows
```
…
## Deriving Information

---

### mutate() - create new variables

```r
chem_trait %>% 
  select(site, elevation, c_percent) %>% 
  mutate(c_percent_prop = c_percent/10)
```

```
## # A tibble: 576 × 4
##    site  elevation c_percent c_percent_prop
##    <chr>     <dbl>     <dbl>          <dbl>
##  1 M          3500      44.0           4.40
##  2 A          3850      44.1           4.41
##  3 M          3500      45.8           4.58
##  4 L          3000      44.6           4.46
##  5 H          4100      46.6           4.66
##  6 M          3500      42.2           4.22
##  7 A          3850      47.4           4.74
##  8 M          3500      46.0           4.60
##  9 L          3000      48.7           4.87
## 10 M          3500      48.6           4.86
## # … with 566 more rows
```

---

### mutate()

```r
chem_trait %>% 
  select(site, elevation, c_percent, p_percent) %>% 
  mutate(c_p_percent = c_percent + p_percent)
```

```
## # A tibble: 576 × 5
##    site  elevation c_percent p_percent c_p_percent
##    <chr>     <dbl>     <dbl>     <dbl>       <dbl>
##  1 M          3500      44.0    0.0984        44.1
##  2 A          3850      44.1    0.218         44.4
##  3 M          3500      45.8    0.0983        45.9
##  4 L          3000      44.6    0.0587        44.7
##  5 H          4100      46.6    0.128         46.7
##  6 M          3500      42.2    0.101         42.3
##  7 A          3850      47.4    0.122         47.5
##  8 M          3500      46.0    0.124         46.1
##  9 L          3000      48.7    0.206         49.0
## 10 M          3500      48.6    0.0632        48.7
## # … with 566 more rows
```
…
---

#### group_by() %>% summarise()

```r
chem_trait %>% 
  group_by(site, treatment) %>% 
  summarise(n_samples = n(),
            n_species = n_distinct(taxon),
            mean_p_percent = mean(p_percent))
```

```
## # A tibble: 24 × 5
## # Groups:   site [4]
##    site  treatment n_samples n_species mean_p_percent
##    <chr> <chr>         <int>     <int>          <dbl>
##  1 A     0                16         4          0.165
##  2 A     1                12         6          0.180
##  3 A     2                16         7          0.167
##  4 A     C                20         5          0.164
##  5 A     LOCAL            55        15         NA    
##  6 A     OTC              25         6          0.157
##  7 H     0                 5         2          0.160
##  8 H     2                21         6          0.160
##  9 H     4                 7         3          0.124
## 10 H     C                 8         2          0.155
## # … with 14 more rows
```
…
- Hadley Wickham

---

## separate()

```r
chem_trait %>%
  select(site, taxon) %>% 
* separate(taxon, c("genus", "specie"))
```

```
## # A tibble: 576 × 3
##    site  genus       specie       
##    <chr> <chr>       <chr>        
##  1 M     Polygonum   cyanandrum   
##  2 A     Polygonum   cyanandrum   
##  3 M     Polygonum   cyanandrum   
##  4 L     Polygonum   cyanandrum   
##  5 H     Rhodiola    fastigiata   
##  6 M     Rhodiola    yunnanensis  
##  7 A     Hemiphragma heterophyllum
##  8 M     Clinopodium polycephalum 
##  9 L     Swertia     macrosperma  
## 10 M     Hemiphragma heterophyllum
## # … with 566 more rows
```

---

## unite()

.pull-left[

```r
chem_trait %>% 
  select(site, dest_block_id)
```

```
## # A tibble: 576 × 2
##    site  dest_block_id
##    <chr> <chr>        
##  1 M     MO           
##  2 A     AO           
##  3 M     MO           
##  4 L     LO           
##  5 H     HO           
##  6 M     MO           
##  7 A     AO           
##  8 M     MO           
##  9 L     LO           
## 10 M     MO           
## # … with 566 more rows
```
]

.pull-right[

```r
chem_trait %>% 
  select(site, dest_block_id) %>% 
  unite("site_dest", site, dest_block_id, sep = "_" )
```

```
## # A tibble: 576 × 1
##    site_dest
##    <chr>    
##  1 M_MO     
##  2 A_AO     
##  3 M_MO     
##  4 L_LO     
##  5 H_HO     
##  6 M_MO     
##  7 A_AO     
##  8 M_MO     
##  9 L_LO     
## 10 M_MO     
## # … with 566 more rows
```
…
